{
  "identityId": "41793834315",
  "identityType": "MSISDN",
  "investigationId": "1b12d0fd-8982-4d58-ab29-eb396544adbf",
  "location": {
    "lat": 43.50897,
    "lon": 16.476429
  },
  "time": 1680159647999
}