{
  "investigationId": "b999b104-cebb-11ed-afa1-0242ac120002",
  "identityId": "601125095231",
  "identityType": "MSISDN",
  "location": {
    "latitude": "27.45",
    "longitude": "88.50"
  },
  "time": 1587786800000
}