{
  "index_patterns": [
    "convoy-*"
  ],
  "settings": {
    "number_of_shards": 2,
    "number_of_replicas": 1
  },
  "mappings": {
    "doc": {
      "properties": {
        "investigationId": {
          "type": "keyword",
          "ignore_above": 36
        },
        "geohash": {
          "type": "keyword",
          "ignore_above": 8
        },
        "provider": {
          "type": "keyword",
          "ignore_above": 100
        },
        "inception": {
          "type": "keyword",
          "ignore_above": 100
        },
        "recordType": {
          "type": "keyword",
          "ignore_above": 20
        },
        "start": {
          "type": "date",
          "format": "epoch_millis"
        },
        "caIdentity": {
          "properties": {
            "identityId": {
              "type": "keyword",
              "ignore_above": 150
            },
            "identityService": {
              "type": "keyword",
              "ignore_above": 150
            }
          }
        },
        "cgi": {
          "type": "keyword",
          "ignore_above": 256
        },
        "location": {
          "type": "nested",
          "properties": {
            "location": {
              "type": "geo_point"
            },
            "locationMetadata": {
              "properties": {
                "provider": {
                  "type": "text"
                },
                "subject": {
                  "type": "text"
                }
              }
            }
          }
        }
      }
    }
  }
}
