{
  "index_patterns": [
    "convoy-cdr-*"
  ],
  "settings": {
    "number_of_shards": 2,
    "number_of_replicas": 1
  },
  "mappings": {
    "doc": {
      "properties": {
        "uuid": {
          "properties": {
            "clockSeqAndNode": {
              "type": "long"
            },
            "time": {
              "type": "long"
            }
          }
        },
        "provider": {
          "type": "keyword",
          "ignore_above": 100
        },
        "callType": {
          "type": "keyword",
          "ignore_above": 20
        },
        "start": {
          "type": "date",
          "format": "epoch_millis"
        },
        "duration": {
          "type": "integer"
        },
        "direction": {
          "type": "integer"
        },
        "msisdnA": {
          "type": "keyword",
          "ignore_above": 100
        },
        "msisdnB": {
          "type": "keyword",
          "ignore_above": 100
        },
        "msisdnC": {
          "type": "keyword",
          "ignore_above": 100
        },
        "imsiA": {
          "type": "keyword",
          "ignore_above": 100
        },
        "imsiB": {
          "type": "keyword",
          "ignore_above": 100
        },
        "imeiA": {
          "type": "keyword",
          "ignore_above": 100
        },
        "imeiB": {
          "type": "keyword",
          "ignore_above": 100
        },
        "status": {
          "type": "keyword",
          "ignore_above": 100
        },
        "cellsA": {
          "type": "nested",
          "properties": {
            "cellGlobalId": {
              "properties": {
                "cellId": {
                  "type": "long"
                },
                "eCellId": {
                  "type": "long"
                },
                "lac": {
                  "type": "integer"
                },
                "mcc": {
                  "type": "integer"
                },
                "mnc": {
                  "type": "integer"
                }
              }
            },
            "location": {
              "properties": {
                "location": {
                  "type": "geo_point"
                },
                "locationMetadata": {
                  "properties": {
                    "provider": {
                      "type": "text"
                    },
                    "subject": {
                      "type": "text"
                    }
                  }
                }
              }
            }
          }
        },
        "cellsB": {
          "type": "nested",
          "properties": {
            "cellGlobalId": {
              "properties": {
                "cellId": {
                  "type": "long"
                },
                "eCellId": {
                  "type": "long"
                },
                "lac": {
                  "type": "integer"
                },
                "mcc": {
                  "type": "integer"
                },
                "mnc": {
                  "type": "integer"
                }
              }
            },
            "location": {
              "properties": {
                "location": {
                  "type": "geo_point"
                },
                "locationMetadata": {
                  "properties": {
                    "provider": {
                      "type": "text"
                    },
                    "subject": {
                      "type": "text"
                    }
                  }
                }
              }
            }
          }
        },
        "locationsA": {
          "type": "nested",
          "properties": {
            "location": {
              "type": "geo_point"
            },
            "locationMetadata": {
              "properties": {
                "provider": {
                  "type": "text"
                },
                "subject": {
                  "type": "text"
                }
              }
            }
          }
        },
        "locationsB": {
          "type": "nested",
          "properties": {
            "location": {
              "type": "geo_point"
            },
            "locationMetadata": {
              "properties": {
                "provider": {
                  "type": "text"
                },
                "subject": {
                  "type": "text"
                }
              }
            }
          }
        },
        "smsContent": {
          "type": "text"
        },
        "voiceContent": {
          "type": "text"
        },
        "countryA": {
          "type": "keyword",
          "ignore_above": 100
        },
        "countryB": {
          "type": "keyword",
          "ignore_above": 100
        },
        "source": {
          "properties": {
            "system": {
              "type": "keyword",
              "ignore_above": 100
            },
            "properties": {
              "properties": {
                "agency-id": {
                  "type": "keyword",
                  "ignore_above": 100
                },
                "agency-name": {
                  "type": "keyword",
                  "ignore_above": 100
                },
                "instance": {
                  "type": "keyword",
                  "ignore_above": 100
                }
              }
            }
          }
        }
      }
    }
  }
}
